{
  "menu": [
    {
      "name": "Dashboards",
      "badge": "2",
      "badgeClass": "badge badge-light-warning rounded-pill ms-auto me-1",
      "icon": "home",
      "slug": "",
      "submenu": [
        {
          "url": "dashboard/analytics",
          "name": "Analytics",
          "icon": "circle",
          "slug": "dashboard-analytics"
        },
        {
          "url": "/",
          "name": "eCommerce",
          "icon": "circle",
          "slug": "dashboard-ecommerce"
        }
      ]
    },

    {
      "navheader": "Apps & Pages",
      "slug": ""
    },
    {
      "url": "app/profilesite",
      "name": "Profile Site",
      "icon": "menu",
      "slug": "app-profilesite"
    },
    {
      "url": "app/organisasi",
      "name": "Organisasi",
      "icon": "users",
      "slug": "app-organisasi"
    },
    {
      "url": "app/jabatan",
      "name": "Jabatan",
      "icon": "pen-tool",
      "slug": "app-jabatan"
    },
    {
      "url": "app/daftarsite",
      "name": "Site",
      "icon": "link",
      "slug": "app-daftarsite"
    },
    {
      "url": "app/kontak",
      "name": "Kontak",
      "icon": "book",
      "slug": "app-kontak"
    },
    {
      "url": "app/tempatpenting",
      "name": "Tempat Penting",
      "icon": "map-pin",
      "slug": "app-tempatpenting"
    },
    {
      "url": "app/agenda",
      "name": "Agenda",
      "icon": "watch",
      "slug": "app-agenda"
    },
    {
      "url": "app/galeri",
      "name": "Galeri",
      "icon": "camera",
      "slug": "app-galeri"
    },
    {
      "url": "app/slider",
      "name": "Slider",
      "icon": "image",
      "slug": "app-slider"
    },
    {
      "url": "app/menulink",
      "name": "Menu & Link",
      "icon": "link-2",
      "slug": "app-menulink"
    },
    {
      "url": "app/",
      "name": "Kotak Masuk",
      "icon": "inbox",
      "slug": "app-"
    },
    {
      "name": "User Management",
      "icon": "settings",
      "slug": "",
      "submenu": [
        {
          "url": "app/usermanagement/user",
          "name": "User",
          "icon": "circle",
          "slug": "app-usermanagement-user"
        },
        {
          "url": "app/usermanagement/rolemenu",
          "name": "Role Menu",
          "icon": "circle",
          "slug": "app-usermanagement-rolemenu"
        }
      ]
    },


    {
      "navheader": "CONTENT MANAGEMENT",
      "slug": ""
    },


    {
      "url": "app/berita",
      "name": "Berita",
      "icon": "trello",
      "slug": "app-berita"
    },
    {
      "url": "app/pengumuman",
      "name": "Pengumuman",
      "icon": "info",
      "slug": "app-pengumuman"
    },
    {
      "url": "app/knowledge",
      "name": "Knowledge",
      "icon": "file-text",
      "slug": "app-knowledge"
    },
    {
      "url": "app/productlayanan",
      "name": "Product Layanan",
      "icon": "briefcase",
      "slug": "app-productlayanan"
    },
    {
      "url": "app/profil",
      "name": "Profil",
      "icon": "user-plus",
      "slug": "app-profil"
    },
    {
      "url": "app/lembaga",
      "name": "Lembaga",
      "icon": "flag",
      "slug": "app-lembaga"
    },
    {
      "url": "app/programunggulan",
      "name": "Program Unggulan",
      "icon": "sunrise",
      "slug": "app-programunggulan"
    },
    {
      "url": "app/strukturorganisasi",
      "name": "Struktur Organisasi",
      "icon": "framer",
      "slug": "app-strukturorganisasi"
    },
    {
      "url": "app/jadwallayanan",
      "name": "Jadwal Layanan",
      "icon": "calendar",
      "slug": "app-jadwallayanan"
    },






 
    {
      "navheader": "Forms & Tables",
      "slug": ""
    },
    {
      "url": "app/email",
      "name": "Email",
      "icon": "mail",
      "slug": "app-email"
    },
    {
      "url": "app/chat",
      "name": "Chat",
      "icon": "message-square",
      "slug": "app-chat"
    },
    {
      "url": "app/todo",
      "name": "Todo",
      "icon": "check-square",
      "slug": "app-todo"
    },
    {
      "url": "app/calendar",
      "name": "Calendar",
      "icon": "calendar",
      "slug": "app-calendar"
    },
    {
      "url": "app/kanban",
      "name": "Kanban",
      "icon": "grid",
      "slug": "app-kanban"
    },
    {
      "name": "Invoice",
      "icon": "file-text",
      "slug": "",
      "submenu": [
        {
          "url": "app/invoice/list",
          "name": "List",
          "icon": "circle",
          "slug": "app-invoice-list"
        },
        {
          "url": "app/invoice/preview",
          "name": "Preview",
          "icon": "circle",
          "slug": "app-invoice-preview"
        },
        {
          "url": "app/invoice/edit",
          "name": "Edit",
          "icon": "circle",
          "slug": "app-invoice-edit"
        },
        {
          "url": "app/invoice/add",
          "name": "Add",
          "icon": "circle",
          "slug": "app-invoice-add"
        }
      ]
    },
    {
      "url": "/modal-examples",
      "name": "Modal Examples",
      "icon": "square",
      "slug": "modal-examples"
    },

    {
      "url": "ui/typography",
      "name": "Typography",
      "icon": "type",
      "slug": "ui-typography"
    },
    {
      "url": "icons/feather",
      "name": "Feather",
      "icon": "eye",
      "slug": "icons-feather"
    },
    {
      "name": "Card",
      "icon": "credit-card",
      "badge": "New",
      "slug": "",
      "badgeClass": "badge badge-light-success rounded-pill ms-auto me-1",
      "submenu": [
        {
          "url": "card/basic",
          "name": "Basic",
          "icon": "circle",
          "slug": "card-basic"
        },
        {
          "url": "card/advance",
          "name": "Advance",
          "icon": "circle",
          "slug": "card-advance"
        },
        {
          "url": "card/statistics",
          "name": "Statistics",
          "icon": "circle",
          "slug": "card-statistics"
        },
        {
          "url": "card/analytics",
          "name": "Analytics",
          "icon": "circle",
          "slug": "card-analytics"
        },
        {
          "url": "card/actions",
          "name": "Card Actions",
          "icon": "circle",
          "slug": "card-actions"
        }
      ]
    },
    {
      "name": "Components",
      "icon": "briefcase",
      "slug": "",
      "submenu": [
        {
          "url": "component/accordion",
          "name": "Accordion",
          "icon": "circle",
          "slug": "component-accordion"
        },
        {
          "url": "component/alert",
          "name": "Alerts",
          "icon": "circle",
          "slug": "component-alert"
        },
        {
          "url": "component/avatar",
          "name": "Avatar",
          "icon": "circle",
          "slug": "component-avatar"
        },
        {
          "url": "component/badges",
          "name": "Badges",
          "icon": "circle",
          "slug": "component-badges"
        },
        {
          "url": "component/breadcrumbs",
          "name": "Breadcrumbs",
          "icon": "circle",
          "slug": "component-breadcrumbs"
        },
        {
          "url": "component/buttons",
          "name": "Buttons",
          "icon": "circle",
          "slug": "component-buttons"
        },
        {
          "url": "component/carousel",
          "name": "Carousel",
          "icon": "circle",
          "slug": "component-carousel"
        },
        {
          "url": "component/collapse",
          "name": "Collapse",
          "icon": "circle",
          "slug": "component-collapse"
        },
        {
          "url": "component/divider",
          "name": "Divider",
          "icon": "circle",
          "slug": "component-divider"
        },
        {
          "url": "component/dropdowns",
          "name": "Dropdowns",
          "icon": "circle",
          "slug": "component-dropdowns"
        },
        {
          "url": "component/list-group",
          "name": "List Group",
          "icon": "circle",
          "slug": "component-list-group"
        },
        {
          "url": "component/modals",
          "name": "Modals",
          "icon": "circle",
          "slug": "component-modals"
        },
        {
          "url": "component/navs",
          "name": "Navs Component",
          "icon": "circle",
          "slug": "component-navs"
        },
        {
          "url": "component/offcanvas",
          "name": "Offcanvas",
          "icon": "circle",
          "slug": "component-offcanvas"
        },
        {
          "url": "component/pagination",
          "name": "Pagination",
          "icon": "circle",
          "slug": "component-pagination"
        },
        {
          "url": "component/pill-badges",
          "name": "Pill Badges",
          "icon": "circle",
          "slug": "component-pill-badges"
        },
        {
          "url": "component/pills",
          "name": "Pills Component",
          "icon": "circle",
          "slug": "component-pills"
        },
        {
          "url": "component/popovers",
          "name": "Popovers",
          "icon": "circle",
          "slug": "component-popovers"
        },
        {
          "url": "component/progress",
          "name": "Progress",
          "icon": "circle",
          "slug": "component-progress"
        },
        {
          "url": "component/spinner",
          "name": "Spinner",
          "icon": "circle",
          "slug": "component-spinner"
        },
        {
          "url": "component/tabs",
          "name": "Tabs Component",
          "icon": "circle",
          "slug": "component-tabs"
        },
        {
          "url": "component/timeline",
          "name": "Timeline",
          "icon": "circle",
          "slug": "component-timeline"
        },
        {
          "url": "component/toast",
          "name": "Toasts",
          "icon": "circle",
          "slug": "component-bs-toast"
        },
        {
          "url": "component/tooltips",
          "name": "Tooltips",
          "icon": "circle",
          "slug": "component-tooltips"
        }
      ]
    },
    {
      "name": "Extensions",
      "icon": "box",
      "slug": "",
      "submenu": [
        {
          "url": "ext-component/sweet-alerts",
          "name": "Sweet Alert",
          "icon": "circle",
          "slug": "ext-component-sweet-alerts"
        },
        {
          "url": "ext-component/block-ui",
          "name": "BlockUI",
          "icon": "circle",
          "slug": "ext-component-block-ui"
        },
        {
          "url": "ext-component/toastr",
          "name": "Toastr",
          "icon": "circle",
          "slug": "ext-component-toastr"
        },
        {
          "url": "ext-component/sliders",
          "name": "Sliders",
          "icon": "circle",
          "slug": "ext-component-sliders"
        },
        {
          "url": "ext-component/drag-drop",
          "name": "Drag & Drop",
          "icon": "circle",
          "slug": "ext-component-drag-drop"
        },
        {
          "url": "ext-component/tour",
          "name": "Tour",
          "icon": "circle",
          "slug": "ext-component-tour"
        },
        {
          "url": "ext-component/clipboard",
          "name": "Clipboard",
          "icon": "circle",
          "slug": "ext-component-clipboard"
        },
        {
          "url": "ext-component/plyr",
          "name": "Media Player",
          "icon": "circle",
          "slug": "ext-component-plyr"
        },
        {
          "url": "ext-component/context-menu",
          "name": "Context Menu",
          "icon": "circle",
          "slug": "ext-component-context-menu"
        },
        {
          "url": "ext-component/swiper",
          "name": "Swiper",
          "icon": "circle",
          "slug": "ext-component-swiper"
        },
        {
          "url": "ext-component/tree",
          "name": "Tree",
          "icon": "circle",
          "slug": "ext-component-tree"
        },
        {
          "url": "ext-component/ratings",
          "name": "Ratings",
          "icon": "circle",
          "slug": "ext-component-ratings"
        },
        {
          "url": "ext-component/locale",
          "name": "Locale",
          "icon": "circle",
          "slug": "ext-component-locale"
        }
      ]
    },
    {
      "name": "Page Layouts",
      "icon": "layout",
      "slug": "",
      "submenu": [
        {
          "url": "page-layouts/collapsed-menu",
          "name": "Collapsed Menu",
          "icon": "circle",
          "slug": "layout-collapsed-menu"
        },
        {
          "url": "page-layouts/full",
          "name": "Layout Full",
          "icon": "circle",
          "slug": "layout-full"
        },
        {
          "url": "page-layouts/without-menu",
          "name": "Without Menu",
          "icon": "circle",
          "slug": "layout-without-menu"
        },
        {
          "url": "page-layouts/empty",
          "name": "Layout Empty",
          "icon": "circle",
          "slug": "layout-empty"
        },
        {
          "url": "page-layouts/blank",
          "name": "Layout Blank",
          "icon": "circle",
          "slug": "layout-blank"
        }
      ]
    },
    {
      "url": "app/file-manager",
      "name": "File Manager",
      "icon": "save",
      "slug": "app-file-manager"
    },
    {
      "name": "Roles & Permission",
      "icon": "shield",
      "slug": "",
      "submenu": [
        {
          "url": "app/access-roles",
          "name": "Roles",
          "icon": "circle",
          "slug": "app-access-roles"
        },
        {
          "url": "app/access-permission",
          "name": "Permission",
          "icon": "circle",
          "slug": "app-access-permission"
        }
      ]
    },
    {
      "name": "eCommerce",
      "icon": "shopping-cart",
      "slug": "",
      "submenu": [
        {
          "url": "app/ecommerce/shop",
          "name": "Shop",
          "icon": "circle",
          "slug": "app-ecommerce-shop"
        },
        {
          "url": "app/ecommerce/details",
          "name": "Details",
          "icon": "circle",
          "slug": "app-ecommerce-details"
        },
        {
          "url": "app/ecommerce/wishlist",
          "name": "Wishlist",
          "icon": "circle",
          "slug": "app-ecommerce-wishlist"
        },
        {
          "url": "app/ecommerce/checkout",
          "name": "Checkout",
          "icon": "circle",
          "slug": "app-ecommerce-checkout"
        }
      ]
    },
    {
      "name": "User",
      "icon": "user",
      "slug": "",
      "submenu": [
        {
          "url": "app/user/list",
          "name": "List",
          "icon": "circle",
          "slug": "app-user-list"
        },
        {
          "name": "View",
          "icon": "circle",
          "slug": "",
          "submenu": [
            {
              "url": "app/user/view/account",
              "name": "Account",
              "slug": "app-user-view-account"
            },
            {
              "url": "app/user/view/security",
              "name": "Security",
              "slug": "app-user-view-security"
            },
            {
              "url": "app/user/view/billing",
              "name": "Billings & Plans",
              "slug": "app-user-view-billing"
            },
            {
              "url": "app/user/view/notifications",
              "name": "Notifications",
              "slug": "app-user-view-notifications"
            },
            {
              "url": "app/user/view/connections",
              "name": "Connections",
              "slug": "app-user-view-connections"
            }
          ]
        }
      ]
    },
    {
      "name": "Pages",
      "icon": "file-text",
      "slug": "",
      "submenu": [
        {
          "name": "Add Data",
          "icon": "circle",
          "slug": "",
          "submenu": [
            {
              "url": "page/account-settings-account",
              "name": "Account",
              "slug": "page-account-settings-account"
            },
            {
              "url": "page/account-settings-security",
              "name": "Security",
              "slug": "page-account-settings-security"
            },
            {
              "url": "page/account-settings-billing",
              "name": "Billings & Plans",
              "slug": "page-account-settings-billing"
            },
            {
              "url": "page/account-settings-notifications",
              "name": "Notifications",
              "slug": "page-account-settings-notifications"
            },
            {
              "url": "page/account-settings-connections",
              "name": "Connections",
              "slug": "page-account-settings-connections"
            }
          ]
        },
        {
          "url": "page/profile",
          "name": "Profile",
          "icon": "circle",
          "slug": "page-profile"
        },
        {
          "url": "page/faq",
          "name": "FAQ",
          "icon": "circle",
          "slug": "page-faq"
        },
        {
          "url": "page/knowledge-base",
          "name": "Knowledge Base",
          "icon": "circle",
          "slug": "page-knowledge-base"
        },
        {
          "url": "page/pricing",
          "name": "Pricing",
          "icon": "circle",
          "slug": "page-pricing"
        },
        {
          "url": "page/license",
          "name": "License",
          "icon": "circle",
          "slug": "page-license"
        },
        {
          "url": "page/api-key",
          "name": "API Key",
          "icon": "circle",
          "slug": "page-api-key"
        },
        {
          "name": "Blog",
          "icon": "circle",
          "slug": "",
          "submenu": [
            { "url": "page/blog/list", "name": "List", "slug": "page-blog-list" },
            { "url": "page/blog/detail", "name": "Detail", "slug": "page-blog-detail" },
            { "url": "page/blog/edit", "name": "Edit", "slug": "page-blog-edit" }
          ]
        },
        {
          "name": "Mail Template",
          "icon": "circle",
          "slug": "",
          "submenu": [
            {
              "name": "Welcome",
              "slug": "mail-welcome",
              "url": "https://pixinvent.com/demo/vuexy-mail-template/mail-welcome.html",
              "newTab": true
            },
            {
              "name": "Reset Password",
              "slug": "mail-forgot",
              "url": "https://pixinvent.com/demo/vuexy-mail-template/mail-reset-password.html",
              "newTab": true
            },
            {
              "name": "Verify Email",
              "slug": "mail-verify",
              "url": "https://pixinvent.com/demo/vuexy-mail-template/mail-verify-email.html",
              "newTab": true
            },
            {
              "name": "Deactivate Account",
              "slug": "mail-deactivate",
              "url": "https://pixinvent.com/demo/vuexy-mail-template/mail-deactivate-account.html",
              "newTab": true
            },
            {
              "name": "Invoice",
              "slug": "mail-invoice",
              "url": "https://pixinvent.com/demo/vuexy-mail-template/mail-invoice.html",
              "newTab": true
            },
            {
              "name": "Promotional",
              "slug": "mail-promotional",
              "url": "https://pixinvent.com/demo/vuexy-mail-template/mail-promotional.html",
              "newTab": true
            }
          ]
        },
        {
          "name": "Miscellaneous",
          "icon": "circle",
          "slug": "",
          "submenu": [
            {
              "url": "page/coming-soon",
              "name": "Coming Soon",
              "slug": "misc-analytics",
              "newTab": true
            },
            {
              "url": "page/not-authorized",
              "name": "Not Authorized",
              "slug": "misc-analytics",
              "newTab": true
            },
            {
              "url": "page/maintenance",
              "name": "Maintenance",
              "slug": "misc-analytics",
              "newTab": true
            },
            {
              "url": "error",
              "name": "Error",
              "slug": "error",
              "newTab": true
            }
          ]
        }
      ]
    },
    {
      "name": "Authentication",
      "icon": "user-check",
      "slug": "",
      "submenu": [
        {
          "name": "Login",
          "icon": "circle",
          "slug": "",
          "submenu": [
            {
              "url": "auth/login-basic",
              "name": "Basic",
              "slug": "auth-login-basic",
              "newTab": true
            },
            {
              "url": "auth/login-cover",
              "name": "Cover",
              "slug": "auth-login-cover",
              "newTab": true
            }
          ]
        },
        {
          "name": "Register",
          "icon": "circle",
          "slug": "",
          "submenu": [
            {
              "url": "auth/register-basic",
              "name": "Basic",
              "slug": "auth-register-basic",
              "newTab": true
            },
            {
              "url": "auth/register-cover",
              "name": "Cover",
              "slug": "auth-register-cover",
              "newTab": true
            },
            {
              "url": "auth/register-multisteps",
              "name": "Multi-Steps",
              "slug": "auth-register-multisteps",
              "newTab": true
            }
          ]
        },
        {
          "name": "Forgot Password",
          "icon": "circle",
          "slug": "",
          "submenu": [
            {
              "url": "auth/forgot-password-basic",
              "name": "Basic",
              "slug": "auth-forgot-password-basic",
              "newTab": true
            },
            {
              "url": "auth/forgot-password-cover",
              "name": "Cover",
              "slug": "auth-forgot-password-cover",
              "newTab": true
            }
          ]
        },
        {
          "name": "Reset Password",
          "icon": "circle",
          "slug": "",
          "submenu": [
            {
              "url": "auth/reset-password-basic",
              "name": "Basic",
              "slug": "auth-reset-password-basic",
              "newTab": true
            },
            {
              "url": "auth/reset-password-cover",
              "name": "Cover",
              "slug": "auth-reset-password-cover",
              "newTab": true
            }
          ]
        },
        {
          "name": "Verify Email",
          "icon": "circle",
          "slug": "",
          "submenu": [
            {
              "url": "auth/verify-email-basic",
              "name": "Basic",
              "slug": "auth-verify-email-basic",
              "newTab": true
            },
            {
              "url": "auth/verify-email-cover",
              "name": "Cover",
              "slug": "auth-verify-email-cover",
              "newTab": true
            }
          ]
        },
        {
          "name": "Two Steps",
          "icon": "circle",
          "slug": "",
          "submenu": [
            {
              "url": "auth/two-steps-basic",
              "name": "Basic",
              "slug": "auth-two-steps-basic",
              "newTab": true
            },
            {
              "url": "auth/two-steps-cover",
              "name": "Cover",
              "slug": "auth-two-steps-cover",
              "newTab": true
            }
          ]
        }
      ]
    },
    {
      "name": "Form Elements",
      "icon": "copy",
      "slug": "",
      "submenu": [
        {
          "url": "form/input",
          "name": "Input",
          "icon": "circle",
          "slug": "form-input"
        },
        {
          "url": "form/input-groups",
          "name": "Input Groups",
          "icon": "circle",
          "slug": "form-input-groups"
        },
        {
          "url": "form/input-mask",
          "name": "Input Mask",
          "icon": "circle",
          "slug": "form-input-mask"
        },
        {
          "url": "form/textarea",
          "name": "Textarea",
          "icon": "circle",
          "slug": "form-textarea"
        },
        {
          "url": "form/checkbox",
          "name": "Checkbox",
          "icon": "circle",
          "slug": "form-checkbox"
        },
        {
          "url": "form/radio",
          "name": "Radio",
          "icon": "circle",
          "slug": "form-radio"
        },
        {
          "url": "form/custom-options",
          "name": "Custom Options",
          "icon": "circle",
          "slug": "form-custom-options"
        },
        {
          "url": "form/switch",
          "name": "Switch",
          "icon": "circle",
          "slug": "form-switch"
        },
        {
          "url": "form/select",
          "name": "Select",
          "icon": "circle",
          "slug": "form-select"
        },
        {
          "url": "form/number-input",
          "name": "Number Input",
          "icon": "circle",
          "slug": "form-number-input"
        },
        {
          "url": "form/file-uploader",
          "name": "File Uploader",
          "icon": "circle",
          "slug": "form-file-uploader"
        },
        {
          "url": "form/quill-editor",
          "name": "Quill Editor",
          "icon": "circle",
          "slug": "form-quill-editor"
        },
        {
          "url": "form/date-time-picker",
          "name": "Date & Time Picker",
          "icon": "circle",
          "slug": "form-date-time-picker"
        }
      ]
    },
    {
      "url": "form/layout",
      "name": "Form Layout",
      "icon": "box",
      "slug": "form-layout"
    },
    {
      "url": "form/wizard",
      "name": "Form Wizard",
      "icon": "package",
      "slug": "form-wizard"
    },
    {
      "url": "form/validation",
      "name": "Form Validation",
      "icon": "check-circle",
      "slug": "form-validation"
    },
    {
      "url": "form/repeater",
      "name": "Form Repeater",
      "icon": "rotate-cw",
      "slug": "form-repeater"
    },
    {
      "url": "table",
      "name": "Table",
      "icon": "server",
      "slug": "table"
    },
    {
      "name": "Datatable",
      "icon": "grid",
      "slug": "",
      "submenu": [
        {
          "url": "table/datatable/basic",
          "name": "Basic",
          "icon": "circle",
          "slug": "datatable-basic"
        },
        {
          "url": "table/datatable/advance",
          "name": "Advanced",
          "icon": "circle",
          "slug": "datatable-advance"
        }
      ]
    },
    {
      "navheader": "Charts & Maps",
      "slug": ""
    },
    {
      "name": "Charts",
      "icon": "pie-chart",
      "badge": "2",
      "slug": "",
      "badgeClass": "badge rounded-pill badge-light-danger ms-auto me-1",
      "submenu": [
        {
          "url": "chart/apex",
          "name": "Apex",
          "icon": "circle",
          "slug": "chart-apex"
        },
        {
          "url": "chart/chartjs",
          "name": "Chartjs",
          "icon": "circle",
          "slug": "chart-chartjs"
        }
      ]
    },
    {
      "url": "maps/leaflet",
      "name": "Leaflet Maps",
      "icon": "map",
      "slug": "map-leaflet"
    },
    {
      "navheader": "Misc",
      "slug": ""
    },
    {
      "name": "Menu Levels",
      "icon": "menu",
      "slug": "",
      "submenu": [
        {
          "name": "Second Level 2.1",
          "icon": "circle",
          "slug": "menu-level"
        },
        {
          "name": "Second Level 2.2",
          "icon": "circle",
          "slug": "",
          "submenu": [
            {
              "name": "Third Level 3.1",
              "slug": "menu-level"
            },
            {
              "name": "Third Level 3.2",
              "slug": "menu-level"
            }
          ]
        }
      ]
    },
    {
      "name": "Disabled Menu",
      "icon": "eye-off",
      "classlist": "disabled",
      "slug": "menu-disabled"
    },
    {
      "url": "https://pixinvent.com/demo/vuexy-html-bootstrap-admin-template/documentation/documentation-laravel-folder-structure.html",
      "name": "Documentation",
      "icon": "folder",
      "slug": "documentation",
      "newTab": true
    },
    {
      "url": "https://pixinvent.ticksy.com/",
      "name": "Raise Support",
      "icon": "life-buoy",
      "slug": "raise-support",
      "newTab": true
    }
  ]
}
